%YAML 1.1
%TAG !u! tag:unity3d.com,2011:
--- !u!1045 &1
EditorBuildSettings:
  m_ObjectHideFlags: 0
  serializedVersion: 2
  m_Scenes:
  - enabled: 0
    path: Assets/Scenes/Master.unity
    guid: de1f6b2146434174380e7e56fc69579a
  - enabled: 1
    path: Assets/Scenes/Forest_EnvironmentSample.unity
    guid: fc1e6a0c2803d9444a02fce99b5b0fb2
  - enabled: 0
    path: Assets/Scenes/AudioZones.unity
    guid: eceab537e1c21674ab0da7b979399c6e
  - enabled: 0
    path: Assets/Scenes/Forest_EnvironmentSample_Collisions.unity
    guid: b113fbf76ecc0f047b63fe945ed1f232
  m_configObjects: {}
